…
The data has 52118 rows and 13 columns. Important features include xxx

``` r
homicide_summarize = 
  homicide_clean |>
  group_by(city_state) |>
  summarise(total_homicide = n(), 
            unsolved_homicide = sum(disposition %in% c("Closed without arrest", "Open/No arrest")))

homicide_summarize
```

    ## # A tibble: 50 × 3
    ##    city_state      total_homicide unsolved_homicide
    ##    <chr>                    <int>             <int>
    ##  1 Albuquerque, NM            375               144
    ##  2 Atlanta, GA                973               373
    ##  3 Baltimore, MD             2827              1825
    ##  4 Baton Rouge, LA            424               196
    ##  5 Birmingham, AL             799               346
    ##  6 Boston, MA                 612               309
    ##  7 Buffalo, NY                520               318
    ##  8 Charlotte, NC              687               206
    ##  9 Chicago, IL               5535              4073
    ## 10 Cincinnati, OH             694               309
    ## # ℹ 40 more rows
…
``` r
tidied_df |>
  group_by(week, subject_id) |> 
  summarise(n = n())
```

    ## `summarise()` has grouped output by 'week'. You can override using the
    ## `.groups` argument.

    ## # A tibble: 80 × 3
    ## # Groups:   week [8]
    ##    week  subject_id     n
    ##    <chr> <chr>      <int>
    ##  1 1     01             2
    ##  2 1     02             2
    ##  3 1     03             2
    ##  4 1     04             2
    ##  5 1     05             2
    ##  6 1     06             2
    ##  7 1     07             2
    ##  8 1     08             2
    ##  9 1     09             2
    ## 10 1     10             2
    ## # ℹ 70 more rows
…
Repeat for all values of mu:

``` r
all_sample = 
  expand_grid(mu = c(0,1,2,3,4,5,6), iter = 1:5000) |> 
  mutate(estimate_df = map(mu, one_sample)) |> 
  unnest(estimate_df) |> 
  mutate(power = p.value < 0.05)
```

``` r
all_sample
```

    ## # A tibble: 35,000 × 5
    ##       mu  iter estimate p.value power
    ##    <dbl> <int>    <dbl>   <dbl> <lgl>
    ##  1     0     1    0.412  0.629  FALSE
    ##  2     0     2    0.664  0.368  FALSE
    ##  3     0     3    0.551  0.534  FALSE
    ##  4     0     4    0.567  0.487  FALSE
    ##  5     0     5   -1.65   0.0599 FALSE
    ##  6     0     6    1.19   0.229  FALSE
    ##  7     0     7    0.334  0.738  FALSE
    ##  8     0     8   -1.19   0.209  FALSE
    ##  9     0     9    0.122  0.887  FALSE
    ## 10     0    10    0.684  0.472  FALSE
    ## # ℹ 34,990 more rows
